<?xml version="1.0" encoding="utf-8"?>
<svg version="1.1" id="Layer_1" xmlns="http://www.w3.org/2000/svg" xmlns:xlink="http://www.w3.org/1999/xlink" x="0px" y="0px"
	 viewBox="0 0 38.6 38.6" style="enable-background:new 0 0 38.6 38.6;" xml:space="preserve">
<style type="text/css">
	.bts-color{fill:#B3B3B3;}
	.big-circle{fill:#FFFFFF;}
	.trunk{fill:#FFFFFF;}
	.small-circle{opacity:0.5;}
</style>
<circle class="bts-color" cx="19.3" cy="19.3" r="18"/>
<g>
	<g>
		<g>
			<g>
				<g>
					<path class="big-circle" d="M19.3,6.8c-6.2,0-11.1,4.9-11.1,11.1c0,4.8,3.1,8.9,7.3,10.4l0.4-1.6c-3.5-1.4-6.1-4.8-6.1-8.9
						c0-5.2,4.3-9.5,9.5-9.5s9.5,4.3,9.5,9.5c0,4-2.5,7.5-6.1,8.9l0.4,1.6c4.2-1.6,7.3-5.6,7.3-10.4C30.4,11.7,25.4,6.8,19.3,6.8z"
						/>
				</g>
			</g>
			<g class="small-circle">
				<g>
					<path class="st1" d="M19.3,11c-3.8,0-6.9,3.1-6.9,6.9c0,2.8,1.7,5.2,4.1,6.3l0.4-1.7C15.2,21.7,14,20,14,17.9
						c0-2.9,2.3-5.2,5.2-5.2s5.2,2.3,5.2,5.2c0,2.1-1.1,3.8-2.9,4.7l0.4,1.7c2.4-1.1,4.1-3.5,4.1-6.3C26.2,14.1,23.1,11,19.3,11z"/>
				</g>
			</g>
		</g>
	</g>
	<path class="trunk" d="M18.4,22.5l-2.1,10.9c-0.1,0.6,0.3,1.1,0.9,1.1h4.3c0.6,0,1-0.6,0.9-1.1l-2.1-10.9
		C20,21.4,18.6,21.4,18.4,22.5z"/>
	<circle class="trunk" cx="19.3" cy="17.9" r="2.1"/>
</g>
</svg>
